<?xml version="1.0" encoding="utf-8"?>
<!-- Generator: Adobe Illustrator 21.0.2, SVG Export Plug-In . SVG Version: 6.00 Build 0)  -->
<svg version="1.1" id="Layer_1" xmlns="http://www.w3.org/2000/svg" xmlns:xlink="http://www.w3.org/1999/xlink" x="0px" y="0px"
	 viewBox="0 0 100 125" style="enable-background:new 0 0 100 125;" xml:space="preserve" width="100px" height="125px">
<style type="text/css">
	.st0{fill:rgb(255,207,0);stroke:rgb(29, 29, 27);stroke-width:2;stroke-miterlimit:10;}
</style>
<path class="st0" d="M81.7,51.3c0,5.3-1.3,10.3-3.5,14.7c-5.4,10.5-28.8,41.3-28.8,41.3S27.8,77.7,22.1,68.7c-3.2-5-5.1-11-5.1-17.4
	C17,33.4,31.5,19,49.3,19S81.7,33.4,81.7,51.3z"/>
<g>
	<path d="M31.9,63.4h7l-1.2,3.9c-0.3,1.1,0.3,2.2,1.4,2.5c1.1,0.3,2.2-0.3,2.5-1.4l1.5-5.1h13.9l1.5,5.1c0.2,0.9,1.1,1.5,1.9,1.5
		c0.2,0,0.4,0,0.6-0.1c1.1-0.3,1.7-1.5,1.4-2.5l-1.2-3.9h7V37.5H53.4l-1.5-5.1C51.7,31.5,50.9,31,50,31s-1.7,0.6-1.9,1.5l-1.5,5.1
		H31.9V63.4z M35.9,41.5h28.1v17.8H35.9V41.5z"/>
	<polygon points="43,56.8 49.4,56.8 61.8,56.8 52.4,43.3 46.2,52.2 43.8,48.8 38.2,56.8 	"/>
</g>
</svg>
